Resultados descriptivos avanzados
…
.font140[
Utilizamos `across()` para transformar el tipo de datos de POSIX a Date en las fechas de la tabla HPV en solo paso.

]

```r
hpv |> 
  mutate(across(where(is.POSIXct),
                as_date)) |> 
  select(where(is.Date))
```

```
## # A tibble: 463 × 6
##    fechanacimiento fecha_informe fecha_muestra fecha_recepcion
##    <date>          <date>        <date>        <date>         
##  1 1991-07-10      2022-04-13    2022-01-27    2022-01-28     
##  2 1979-09-01      2022-12-07    2022-10-26    2022-11-08     
##  3 1990-07-04      2022-10-19    2022-10-03    2022-10-06     
##  4 1990-08-01      2022-05-04    2022-03-10    2022-03-16     
##  5 1984-08-05      2022-12-13    2022-11-24    2022-12-01     
##  6 1991-02-02      2022-05-10    2022-04-12    2022-04-13     
##  7 1985-05-29      2022-05-09    2022-04-07    2022-04-13     
##  8 1977-08-14      2022-01-12    2022-01-05    2022-01-05     
##  9 1987-10-01      2022-05-10    2022-04-12    2022-04-13     
## 10 1982-04-18      2022-12-27    2022-11-28    2022-12-15     
## # ℹ 453 more rows
## # ℹ 2 more variables: ultima_fecha_modificacion <date>, fecha_contacto <date>
```
…
